; Lines
0000000000
1111111111
0000000000
1111111111
0000000000
1111111111
0000000000
1111111111
0000000000
1111111111
0000000000
1111111111
; Columns
0101010101
0101010101
0101010101
0101010101
0101010101
0101010101
0101010101
0101010101
0101010101
0101010101
0101010101
0101010101
; Chessboard
0101010101
1010101010
0101010101
1010101010
0101010101
1010101010
0101010101
1010101010
0101010101
1010101010
0101010101
1010101010
; Noise
1010001010
1111110000
1001101011
0111001110
0000110010
1110101010
0110111011
1010011110
1111010011
1011111001
0110011000
1110001011
; X-pattern
0000000000
1000000001
0100000010
0010000100
0001001000
0000110000
0000110000
0001001000
0010000100
0100000010
1000000001
0000000000
; Cross
0000110000
0000110000
0000110000
0000110000
0000110000
1111111111
1111111111
0000110000
0000110000
0000110000
0000110000
0000110000
